\@ifundefined {etoctocstyle}{\let \etoc@startlocaltoc \@gobble \let \etoc@settocdepth \@gobble \let \etoc@depthtag \@gobble }{}
\contentsline {chapter}{\numberline {1}Hierarchical Index}{1}{chapter.1}
\contentsline {section}{\numberline {1.1}Class Hierarchy}{1}{section.1.1}
\contentsline {chapter}{\numberline {2}Class Index}{3}{chapter.2}
\contentsline {section}{\numberline {2.1}Class List}{3}{section.2.1}
\contentsline {chapter}{\numberline {3}Class Documentation}{5}{chapter.3}
\contentsline {section}{\numberline {3.1}global.\discretionary {\unhbox \voidb@x \hbox {\relax \fontsize {7}{8}\selectfont $\leftarrow \joinrel \rhook $}}{}{}Architecture Class Reference}{5}{section.3.1}
\contentsline {section}{\numberline {3.2}launch\discretionary {\unhbox \voidb@x \hbox {\relax \fontsize {7}{8}\selectfont $\leftarrow \joinrel \rhook $}}{}{}\_\discretionary {\unhbox \voidb@x \hbox {\relax \fontsize {7}{8}\selectfont $\leftarrow \joinrel \rhook $}}{}{}experiment.\discretionary {\unhbox \voidb@x \hbox {\relax \fontsize {7}{8}\selectfont $\leftarrow \joinrel \rhook $}}{}{}Experiment Class Reference}{5}{section.3.2}
\contentsline {subsection}{\numberline {3.2.1}Detailed Description}{6}{subsection.3.2.1}
\contentsline {subsection}{\numberline {3.2.2}Constructor \& Destructor Documentation}{6}{subsection.3.2.2}
\contentsline {subsubsection}{\numberline {3.2.2.1}\discretionary {\unhbox \voidb@x \hbox {\relax \fontsize {7}{8}\selectfont $\leftarrow \joinrel \rhook $}}{}{}\_\discretionary {\unhbox \voidb@x \hbox {\relax \fontsize {7}{8}\selectfont $\leftarrow \joinrel \rhook $}}{}{}\discretionary {\unhbox \voidb@x \hbox {\relax \fontsize {7}{8}\selectfont $\leftarrow \joinrel \rhook $}}{}{}\_\discretionary {\unhbox \voidb@x \hbox {\relax \fontsize {7}{8}\selectfont $\leftarrow \joinrel \rhook $}}{}{}init\discretionary {\unhbox \voidb@x \hbox {\relax \fontsize {7}{8}\selectfont $\leftarrow \joinrel \rhook $}}{}{}\_\discretionary {\unhbox \voidb@x \hbox {\relax \fontsize {7}{8}\selectfont $\leftarrow \joinrel \rhook $}}{}{}\discretionary {\unhbox \voidb@x \hbox {\relax \fontsize {7}{8}\selectfont $\leftarrow \joinrel \rhook $}}{}{}\_\discretionary {\unhbox \voidb@x \hbox {\relax \fontsize {7}{8}\selectfont $\leftarrow \joinrel \rhook $}}{}{}()}{6}{subsubsection.3.2.2.1}
\contentsline {subsection}{\numberline {3.2.3}Member Function Documentation}{7}{subsection.3.2.3}
\contentsline {subsubsection}{\numberline {3.2.3.1}get\discretionary {\unhbox \voidb@x \hbox {\relax \fontsize {7}{8}\selectfont $\leftarrow \joinrel \rhook $}}{}{}\_\discretionary {\unhbox \voidb@x \hbox {\relax \fontsize {7}{8}\selectfont $\leftarrow \joinrel \rhook $}}{}{}measures()}{7}{subsubsection.3.2.3.1}
\contentsline {subsubsection}{\numberline {3.2.3.2}launch\discretionary {\unhbox \voidb@x \hbox {\relax \fontsize {7}{8}\selectfont $\leftarrow \joinrel \rhook $}}{}{}Api\discretionary {\unhbox \voidb@x \hbox {\relax \fontsize {7}{8}\selectfont $\leftarrow \joinrel \rhook $}}{}{}Request()}{7}{subsubsection.3.2.3.2}
\contentsline {subsubsection}{\numberline {3.2.3.3}launch\discretionary {\unhbox \voidb@x \hbox {\relax \fontsize {7}{8}\selectfont $\leftarrow \joinrel \rhook $}}{}{}Bash\discretionary {\unhbox \voidb@x \hbox {\relax \fontsize {7}{8}\selectfont $\leftarrow \joinrel \rhook $}}{}{}Script()}{7}{subsubsection.3.2.3.3}
\contentsline {subsubsection}{\numberline {3.2.3.4}run()}{8}{subsubsection.3.2.3.4}
\contentsline {section}{\numberline {3.3}global.\discretionary {\unhbox \voidb@x \hbox {\relax \fontsize {7}{8}\selectfont $\leftarrow \joinrel \rhook $}}{}{}Operating\discretionary {\unhbox \voidb@x \hbox {\relax \fontsize {7}{8}\selectfont $\leftarrow \joinrel \rhook $}}{}{}System Class Reference}{8}{section.3.3}
\contentsline {section}{\numberline {3.4}global.\discretionary {\unhbox \voidb@x \hbox {\relax \fontsize {7}{8}\selectfont $\leftarrow \joinrel \rhook $}}{}{}Topology Class Reference}{8}{section.3.4}
\contentsline {chapter}{Index}{11}{section*.13}
