\relax 
\providecommand\hyper@newdestlabel[2]{}
\providecommand\HyperFirstAtBeginDocument{\AtBeginDocument}
\HyperFirstAtBeginDocument{\ifx\hyper@anchor\@undefined
\global\let\oldcontentsline\contentsline
\gdef\contentsline#1#2#3#4{\oldcontentsline{#1}{#2}{#3}}
\global\let\oldnewlabel\newlabel
\gdef\newlabel#1#2{\newlabelxx{#1}#2}
\gdef\newlabelxx#1#2#3#4#5#6{\oldnewlabel{#1}{{#2}{#3}}}
\AtEndDocument{\ifx\hyper@anchor\@undefined
\let\contentsline\oldcontentsline
\let\newlabel\oldnewlabel
\fi}
\fi}
\global\let\hyper@last\relax 
\gdef\HyperFirstAtBeginDocument#1{#1}
\providecommand\HyField@AuxAddToFields[1]{}
\providecommand\HyField@AuxAddToCoFields[2]{}
\providecommand \oddpage@label [2]{}
\@writefile{toc}{\@ifundefined {etoctocstyle}{\let \etoc@startlocaltoc \@gobble \let \etoc@settocdepth \@gobble \let \etoc@depthtag \@gobble }{}}
\@writefile{toc}{\contentsline {chapter}{\numberline {1}Hierarchical Index}{1}{chapter.1}}
\@writefile{lof}{\addvspace {10\p@ }}
\@writefile{lot}{\addvspace {10\p@ }}
\@writefile{toc}{\contentsline {section}{\numberline {1.1}Class Hierarchy}{1}{section.1.1}}
\@writefile{toc}{\contentsline {chapter}{\numberline {2}Class Index}{3}{chapter.2}}
\@writefile{lof}{\addvspace {10\p@ }}
\@writefile{lot}{\addvspace {10\p@ }}
\@writefile{toc}{\contentsline {section}{\numberline {2.1}Class List}{3}{section.2.1}}
\@writefile{toc}{\contentsline {chapter}{\numberline {3}Class Documentation}{5}{chapter.3}}
\@writefile{lof}{\addvspace {10\p@ }}
\@writefile{lot}{\addvspace {10\p@ }}
\@writefile{toc}{\contentsline {section}{\numberline {3.1}global.\discretionary {\unhbox \voidb@x \hbox {\relax \fontsize  {7}{8}\selectfont  $\leftarrow \joinrel  \rhook $}}{}{}Architecture Class Reference}{5}{section.3.1}}
\newlabel{classglobal_1_1Architecture}{{3.1}{5}{global.\+Architecture Class Reference}{section.3.1}{}}
\newlabel{classglobal_1_1Architecture_a5ae6297f0befe24a9ebc50f4a6da858e}{{3.1}{5}{Public Member Functions}{section*.2}{}}
\newlabel{classglobal_1_1Architecture_a3126f823395ca687c6dee6bff3ad5cff}{{3.1}{5}{Static Public Attributes}{section*.3}{}}
\@writefile{toc}{\contentsline {section}{\numberline {3.2}launch\discretionary {\unhbox \voidb@x \hbox {\relax \fontsize  {7}{8}\selectfont  $\leftarrow \joinrel  \rhook $}}{}{}\_\discretionary {\unhbox \voidb@x \hbox {\relax \fontsize  {7}{8}\selectfont  $\leftarrow \joinrel  \rhook $}}{}{}experiment.\discretionary {\unhbox \voidb@x \hbox {\relax \fontsize  {7}{8}\selectfont  $\leftarrow \joinrel  \rhook $}}{}{}Experiment Class Reference}{5}{section.3.2}}
\newlabel{classlaunch__experiment_1_1Experiment}{{3.2}{5}{launch\+\_\+experiment.\+Experiment Class Reference}{section.3.2}{}}
\gdef \LT@i {\LT@entry 
    {3}{77.43698pt}\LT@entry 
    {3}{272.38655pt}}
\newlabel{classlaunch__experiment_1_1Experiment_a96afde0bf7b90fa181a6159d5b77f36e}{{3.2}{6}{Public Attributes}{section*.6}{}}
\newlabel{classlaunch__experiment_1_1Experiment_ac5801a87c0646b5e4308cc4da5e4295d}{{3.2}{6}{Public Attributes}{section*.6}{}}
\newlabel{classlaunch__experiment_1_1Experiment_aaf831d89395d57f0cf4f91d37d0b21da}{{3.2}{6}{Public Attributes}{section*.6}{}}
\newlabel{classlaunch__experiment_1_1Experiment_ab3ca85f5e435f2bce2500b77bcd379f3}{{3.2}{6}{Public Attributes}{section*.6}{}}
\newlabel{classlaunch__experiment_1_1Experiment_aa3679bb4c094c4d0192e37ff2328f1d4}{{3.2}{6}{Public Attributes}{section*.6}{}}
\newlabel{classlaunch__experiment_1_1Experiment_a34397f3196e406682a2867d23d1050ff}{{3.2}{6}{Public Attributes}{section*.6}{}}
\newlabel{classlaunch__experiment_1_1Experiment_a6921c01c86b166527b2554db357e38a9}{{3.2}{6}{Public Attributes}{section*.6}{}}
\@writefile{toc}{\contentsline {subsection}{\numberline {3.2.1}Detailed Description}{6}{subsection.3.2.1}}
\@writefile{toc}{\contentsline {subsection}{\numberline {3.2.2}Constructor \& Destructor Documentation}{6}{subsection.3.2.2}}
\newlabel{classlaunch__experiment_1_1Experiment_a0f6eb36220a4e2fbd6767d57031e87a8}{{3.2.2}{6}{Constructor \& Destructor Documentation}{subsection.3.2.2}{}}
\@writefile{toc}{\contentsline {subsubsection}{\numberline {3.2.2.1}\discretionary {\unhbox \voidb@x \hbox {\relax \fontsize  {7}{8}\selectfont  $\leftarrow \joinrel  \rhook $}}{}{}\_\discretionary {\unhbox \voidb@x \hbox {\relax \fontsize  {7}{8}\selectfont  $\leftarrow \joinrel  \rhook $}}{}{}\discretionary {\unhbox \voidb@x \hbox {\relax \fontsize  {7}{8}\selectfont  $\leftarrow \joinrel  \rhook $}}{}{}\_\discretionary {\unhbox \voidb@x \hbox {\relax \fontsize  {7}{8}\selectfont  $\leftarrow \joinrel  \rhook $}}{}{}init\discretionary {\unhbox \voidb@x \hbox {\relax \fontsize  {7}{8}\selectfont  $\leftarrow \joinrel  \rhook $}}{}{}\_\discretionary {\unhbox \voidb@x \hbox {\relax \fontsize  {7}{8}\selectfont  $\leftarrow \joinrel  \rhook $}}{}{}\discretionary {\unhbox \voidb@x \hbox {\relax \fontsize  {7}{8}\selectfont  $\leftarrow \joinrel  \rhook $}}{}{}\_\discretionary {\unhbox \voidb@x \hbox {\relax \fontsize  {7}{8}\selectfont  $\leftarrow \joinrel  \rhook $}}{}{}()}{6}{subsubsection.3.2.2.1}}
\gdef \LT@ii {\LT@entry 
    {3}{69.1839pt}\LT@entry 
    {3}{111.30779pt}}
\gdef \LT@iii {\LT@entry 
    {3}{26.80371pt}\LT@entry 
    {3}{84.43448pt}}
\gdef \LT@iv {\LT@entry 
    {3}{26.80371pt}\LT@entry 
    {3}{84.43448pt}}
\@writefile{toc}{\contentsline {subsection}{\numberline {3.2.3}Member Function Documentation}{7}{subsection.3.2.3}}
\newlabel{classlaunch__experiment_1_1Experiment_a39801806ace317b9cb3b89b9b8575a1c}{{3.2.3}{7}{Member Function Documentation}{subsection.3.2.3}{}}
\@writefile{toc}{\contentsline {subsubsection}{\numberline {3.2.3.1}get\discretionary {\unhbox \voidb@x \hbox {\relax \fontsize  {7}{8}\selectfont  $\leftarrow \joinrel  \rhook $}}{}{}\_\discretionary {\unhbox \voidb@x \hbox {\relax \fontsize  {7}{8}\selectfont  $\leftarrow \joinrel  \rhook $}}{}{}measures()}{7}{subsubsection.3.2.3.1}}
\newlabel{classlaunch__experiment_1_1Experiment_afa5580be5c2ebe2cee3021af46476446}{{3.2.3.1}{7}{\texorpdfstring {get\+\_\+measures()}{get\_measures()}}{table.3.2}{}}
\@writefile{toc}{\contentsline {subsubsection}{\numberline {3.2.3.2}launch\discretionary {\unhbox \voidb@x \hbox {\relax \fontsize  {7}{8}\selectfont  $\leftarrow \joinrel  \rhook $}}{}{}Api\discretionary {\unhbox \voidb@x \hbox {\relax \fontsize  {7}{8}\selectfont  $\leftarrow \joinrel  \rhook $}}{}{}Request()}{7}{subsubsection.3.2.3.2}}
\newlabel{classlaunch__experiment_1_1Experiment_aa3b0a470041b7e2f21d987159bc40541}{{3.2.3.2}{7}{\texorpdfstring {launch\+Api\+Request()}{launchApiRequest()}}{table.3.3}{}}
\@writefile{toc}{\contentsline {subsubsection}{\numberline {3.2.3.3}launch\discretionary {\unhbox \voidb@x \hbox {\relax \fontsize  {7}{8}\selectfont  $\leftarrow \joinrel  \rhook $}}{}{}Bash\discretionary {\unhbox \voidb@x \hbox {\relax \fontsize  {7}{8}\selectfont  $\leftarrow \joinrel  \rhook $}}{}{}Script()}{7}{subsubsection.3.2.3.3}}
\newlabel{classlaunch__experiment_1_1Experiment_a97332d31cc94f7eca42ab7748a33733e}{{3.2.3.3}{7}{\texorpdfstring {launch\+Bash\+Script()}{launchBashScript()}}{table.3.4}{}}
\gdef \LT@v {\LT@entry 
    {3}{26.80371pt}\LT@entry 
    {3}{84.43448pt}}
\@writefile{toc}{\contentsline {subsubsection}{\numberline {3.2.3.4}run()}{8}{subsubsection.3.2.3.4}}
\@writefile{toc}{\contentsline {section}{\numberline {3.3}global.\discretionary {\unhbox \voidb@x \hbox {\relax \fontsize  {7}{8}\selectfont  $\leftarrow \joinrel  \rhook $}}{}{}Operating\discretionary {\unhbox \voidb@x \hbox {\relax \fontsize  {7}{8}\selectfont  $\leftarrow \joinrel  \rhook $}}{}{}System Class Reference}{8}{section.3.3}}
\newlabel{classglobal_1_1OperatingSystem}{{3.3}{8}{global.\+Operating\+System Class Reference}{section.3.3}{}}
\newlabel{classglobal_1_1OperatingSystem_afaa27d408074bd1efb82cbd964dd67d4}{{3.3}{8}{Public Member Functions}{section*.8}{}}
\newlabel{classglobal_1_1OperatingSystem_aafa400fca9eb7da8d711187304d8b6c9}{{3.3}{8}{Static Public Attributes}{section*.9}{}}
\newlabel{classglobal_1_1OperatingSystem_ab505408327692d987a317ca6bf563343}{{3.3}{8}{Static Public Attributes}{section*.9}{}}
\newlabel{classglobal_1_1OperatingSystem_adfbf656e7ca2a26375a51ed375152438}{{3.3}{8}{Static Public Attributes}{section*.9}{}}
\@writefile{toc}{\contentsline {section}{\numberline {3.4}global.\discretionary {\unhbox \voidb@x \hbox {\relax \fontsize  {7}{8}\selectfont  $\leftarrow \joinrel  \rhook $}}{}{}Topology Class Reference}{8}{section.3.4}}
\newlabel{classglobal_1_1Topology}{{3.4}{8}{global.\+Topology Class Reference}{section.3.4}{}}
\newlabel{classglobal_1_1Topology_a3217ab79142a30d1e0534646978f3848}{{3.4}{9}{Public Member Functions}{section*.11}{}}
\newlabel{classglobal_1_1Topology_a8cce9711bce62e3b5908198e38980cdf}{{3.4}{9}{Static Public Attributes}{section*.12}{}}
\newlabel{classglobal_1_1Topology_a97ec44063fc0cdd6ca79473ca8728728}{{3.4}{9}{Static Public Attributes}{section*.12}{}}
\newlabel{classglobal_1_1Topology_ad9c10bfcad5188c8b93d9dcdbb73d5bf}{{3.4}{9}{Static Public Attributes}{section*.12}{}}
\@writefile{toc}{\contentsline {chapter}{Index}{11}{section*.13}}
